<?xml version="1.0" encoding="UTF-8" standalone="no"?>
<!-- Created with Inkscape (http://www.inkscape.org/) -->

<svg
   xmlns:dc="http://purl.org/dc/elements/1.1/"
   xmlns:cc="http://creativecommons.org/ns#"
   xmlns:rdf="http://www.w3.org/1999/02/22-rdf-syntax-ns#"
   xmlns:svg="http://www.w3.org/2000/svg"
   xmlns="http://www.w3.org/2000/svg"
   xmlns:sodipodi="http://sodipodi.sourceforge.net/DTD/sodipodi-0.dtd"
   xmlns:inkscape="http://www.inkscape.org/namespaces/inkscape"
   width="22.532658mm"
   height="28.391279mm"
   viewBox="0 0 22.532658 28.39128"
   version="1.1"
   id="svg5447"
   inkscape:version="0.92.4 (f8dce91, 2019-08-02)"
   sodipodi:docname="a.svg">
  <defs
     id="defs5441" />
  <sodipodi:namedview
     id="base"
     pagecolor="#ffffff"
     bordercolor="#666666"
     borderopacity="1.0"
     inkscape:pageopacity="0.0"
     inkscape:pageshadow="2"
     inkscape:zoom="5.6"
     inkscape:cx="63.984912"
     inkscape:cy="56.934866"
     inkscape:document-units="mm"
     inkscape:current-layer="layer1"
     showgrid="false"
     inkscape:window-width="1850"
     inkscape:window-height="1016"
     inkscape:window-x="70"
     inkscape:window-y="27"
     inkscape:window-maximized="1" />
  <metadata
     id="metadata5444">
    <rdf:RDF>
      <cc:Work
         rdf:about="">
        <dc:format>image/svg+xml</dc:format>
        <dc:type
           rdf:resource="http://purl.org/dc/dcmitype/StillImage" />
        <dc:title />
      </cc:Work>
    </rdf:RDF>
  </metadata>
  <g
     inkscape:label="Layer 1"
     inkscape:groupmode="layer"
     id="layer1"
     transform="translate(0.58850046,1.4337386)">
    <rect
       style="fill:#000000;fill-opacity:1;stroke:#00ccff;stroke-width:1.14831865;stroke-miterlimit:4;stroke-dasharray:none;stroke-opacity:1"
       id="rect5469"
       width="21.384338"
       height="27.24296"
       x="-0.014341135"
       y="-0.85957927" />
    <g
       transform="matrix(0.26458333,0,0,0.26458333,-3.8903454,-1.9207964)"
       id="g5400"
       style="stroke:#000000;stroke-opacity:1">
      <path
         style="fill:#00ccff;fill-opacity:1;stroke:#000000;stroke-width:1.50185478;stroke-opacity:1"
         d="M 89.7421,56.25304 H 73.961335 l -18.24963,-8.404128 h -22.54371 v 8.404128 h -8.0514 V 39.444784 h 32.31291 z m 0.21483,0 H 74.176165 l -18.24963,-8.404128 h -22.54371 v 8.404128 h -8.0514 V 39.444784 H 58.61044 Z m 0,0 H 74.176165 l -18.24963,-8.404128 h -22.54371 v 8.404128 h -8.0514 V 39.444784 H 58.61044 Z M 25.2238,31.040656 H 57.42919 L 89.7421,14.2324 H 73.961335 l -18.24963,8.404128 H 33.275095 V 14.2324 H 25.2238 Z"
         id="path4"
         inkscape:connector-curvature="0" />
      <path
         inkscape:connector-curvature="0"
         id="path24"
         d="m 53.874,92.39 1.6358,5.01 h 5.2483 L 52.1699,72.56 H 46.5127 L 37.686,97.4 h 5.2141 l 1.6697,-5.01 z m -1.3974,-4.26 h -6.4751 l 3.2375,-9.712 z"
         style="fill:#00ccff;fill-opacity:1;stroke:#000000;stroke-width:1.39999998;stroke-opacity:1" />
    </g>
  </g>
</svg>
