<?xml version="1.0" encoding="UTF-8" standalone="no"?>
<!-- Created with Inkscape (http://www.inkscape.org/) -->

<svg
   xmlns:dc="http://purl.org/dc/elements/1.1/"
   xmlns:cc="http://creativecommons.org/ns#"
   xmlns:rdf="http://www.w3.org/1999/02/22-rdf-syntax-ns#"
   xmlns:svg="http://www.w3.org/2000/svg"
   xmlns="http://www.w3.org/2000/svg"
   xmlns:sodipodi="http://sodipodi.sourceforge.net/DTD/sodipodi-0.dtd"
   xmlns:inkscape="http://www.inkscape.org/namespaces/inkscape"
   width="22.532658mm"
   height="28.391279mm"
   viewBox="0 0 22.532658 28.39128"
   version="1.1"
   id="svg5447"
   inkscape:version="0.92.4 (f8dce91, 2019-08-02)"
   sodipodi:docname="b.svg">
  <defs
     id="defs5441" />
  <sodipodi:namedview
     id="base"
     pagecolor="#ffffff"
     bordercolor="#666666"
     borderopacity="1.0"
     inkscape:pageopacity="0.0"
     inkscape:pageshadow="2"
     inkscape:zoom="5.6"
     inkscape:cx="5.4053934"
     inkscape:cy="54.735023"
     inkscape:document-units="mm"
     inkscape:current-layer="g6341"
     showgrid="false"
     inkscape:window-width="1850"
     inkscape:window-height="1016"
     inkscape:window-x="70"
     inkscape:window-y="27"
     inkscape:window-maximized="1" />
  <metadata
     id="metadata5444">
    <rdf:RDF>
      <cc:Work
         rdf:about="">
        <dc:format>image/svg+xml</dc:format>
        <dc:type
           rdf:resource="http://purl.org/dc/dcmitype/StillImage" />
        <dc:title />
      </cc:Work>
    </rdf:RDF>
  </metadata>
  <g
     inkscape:label="Layer 1"
     inkscape:groupmode="layer"
     id="layer1"
     transform="translate(0.58850046,1.4337386)">
    <rect
       style="fill:#000000;fill-opacity:1;stroke:#00ccff;stroke-width:1.14831865;stroke-miterlimit:4;stroke-dasharray:none;stroke-opacity:1"
       id="rect5469"
       width="21.384338"
       height="27.24296"
       x="-0.014341135"
       y="-0.85957927" />
    <g
       transform="matrix(0.26458333,0,0,0.26458333,-26.21379,-2.173084)"
       id="g6341">
      <path
         style="fill:#00ccff;fill-opacity:1;stroke:none;stroke-width:1.39999998"
         d="M 165.887,31.076 155.15,14.3 H 123.5 l -11.296,16.776 h 8.388 l 5.928,-8.388 h 25.052 l 5.927,8.388 z m -15.545,8.388 h -22.815 v -8.276 h 22.815 z m 15.657,0 -10.737,16.776 h -31.65 L 112.316,39.464 h 8.388 l 5.927,8.388 h 25.052 l 5.928,-8.388 z"
         id="path6"
         inkscape:connector-curvature="0" />
      <path
         inkscape:connector-curvature="0"
         id="path26"
         d="m 126.32,97.4 h 11.172 c 2.863,0 4.771,-0.545 6.271,-1.806 1.499,-1.261 2.456,-3.374 2.456,-5.351 0,-2.453 -1.33,-4.396 -4.126,-6.032 2.454,-1.567 3.411,-2.998 3.411,-5.111 0,-1.704 -0.853,-3.51 -2.252,-4.737 -1.466,-1.261 -3.204,-1.802 -5.862,-1.802 h -11.07 z m 5.11,-20.58 h 5.551 c 2.352,0 3.619,0.987 3.619,2.824 0,1.806 -1.263,2.796 -3.619,2.796 h -5.551 z m 0,9.88 h 6.097 c 2.487,0 3.783,1.124 3.783,3.237 0,2.078 -1.295,3.203 -3.783,3.203 h -6.097 z"
         style="fill:#00ccff;fill-opacity:1;stroke:none;stroke-width:1.39999998" />
    </g>
  </g>
</svg>
