<?xml version="1.0" encoding="UTF-8" standalone="no"?>
<!-- Created with Inkscape (http://www.inkscape.org/) -->

<svg
   xmlns:dc="http://purl.org/dc/elements/1.1/"
   xmlns:cc="http://creativecommons.org/ns#"
   xmlns:rdf="http://www.w3.org/1999/02/22-rdf-syntax-ns#"
   xmlns:svg="http://www.w3.org/2000/svg"
   xmlns="http://www.w3.org/2000/svg"
   xmlns:sodipodi="http://sodipodi.sourceforge.net/DTD/sodipodi-0.dtd"
   xmlns:inkscape="http://www.inkscape.org/namespaces/inkscape"
   width="22.532658mm"
   height="28.391279mm"
   viewBox="0 0 22.532658 28.39128"
   version="1.1"
   id="svg5447"
   inkscape:version="0.92.4 (f8dce91, 2019-08-02)"
   sodipodi:docname="d.svg">
  <defs
     id="defs5441" />
  <sodipodi:namedview
     id="base"
     pagecolor="#ffffff"
     bordercolor="#666666"
     borderopacity="1.0"
     inkscape:pageopacity="0.0"
     inkscape:pageshadow="2"
     inkscape:zoom="5.6"
     inkscape:cx="63.984912"
     inkscape:cy="56.934866"
     inkscape:document-units="mm"
     inkscape:current-layer="layer1"
     showgrid="false"
     inkscape:window-width="1850"
     inkscape:window-height="1016"
     inkscape:window-x="70"
     inkscape:window-y="27"
     inkscape:window-maximized="1" />
  <metadata
     id="metadata5444">
    <rdf:RDF>
      <cc:Work
         rdf:about="">
        <dc:format>image/svg+xml</dc:format>
        <dc:type
           rdf:resource="http://purl.org/dc/dcmitype/StillImage" />
        <dc:title></dc:title>
      </cc:Work>
    </rdf:RDF>
  </metadata>
  <g
     inkscape:label="Layer 1"
     inkscape:groupmode="layer"
     id="layer1"
     transform="translate(0.58850046,1.4337386)">
    <rect
       style="fill:#000000;fill-opacity:1;stroke:#00ccff;stroke-width:1.14831865;stroke-miterlimit:4;stroke-dasharray:none;stroke-opacity:1"
       id="rect5469"
       width="21.384338"
       height="27.24296"
       x="-0.014341135"
       y="-0.85957927" />
    <path
       d="M 17.103299,1.5767419 8.6993386,12.703002 H 6.095574 L 9.4391136,8.234717 H 5.7106052 L 7.4565907,6.0450253 H 11.036932 L 12.753284,3.8257002 H 5.0597302 L 6.8350844,1.5767419 Z"
       id="path12"
       inkscape:connector-curvature="0"
       style="fill:#00ccff;stroke:none;stroke-width:0.37041667" />
    <path
       style="fill:#00ccff;stroke:none;stroke-width:0.37041667"
       inkscape:connector-curvature="0"
       id="path32"
       d="m 6.6329427,23.593253 h 2.5683105 c 1.0006538,0 1.6319498,-0.234421 2.0738038,-0.766498 0.523082,-0.61304 0.803011,-1.505744 0.803011,-2.524654 0,-1.009915 -0.279665,-1.902355 -0.803011,-2.524655 -0.441854,-0.532077 -1.063889,-0.756179 -2.0738038,-0.756179 H 6.6329427 Z m 1.3520209,-1.127125 v -4.318 h 1.2162896 c 1.0189108,0 1.5247938,0.711993 1.5247938,2.162968 0,1.442773 -0.505354,2.155032 -1.5247938,2.155032 z" />
  </g>
</svg>
