<?xml version="1.0" encoding="UTF-8" standalone="no"?>
<!-- Created with Inkscape (http://www.inkscape.org/) -->

<svg
   xmlns:dc="http://purl.org/dc/elements/1.1/"
   xmlns:cc="http://creativecommons.org/ns#"
   xmlns:rdf="http://www.w3.org/1999/02/22-rdf-syntax-ns#"
   xmlns:svg="http://www.w3.org/2000/svg"
   xmlns="http://www.w3.org/2000/svg"
   xmlns:sodipodi="http://sodipodi.sourceforge.net/DTD/sodipodi-0.dtd"
   xmlns:inkscape="http://www.inkscape.org/namespaces/inkscape"
   width="22.532658mm"
   height="28.391279mm"
   viewBox="0 0 22.532658 28.39128"
   version="1.1"
   id="svg5447"
   inkscape:version="0.92.4 (f8dce91, 2019-08-02)"
   sodipodi:docname="f.svg">
  <defs
     id="defs5441" />
  <sodipodi:namedview
     id="base"
     pagecolor="#ffffff"
     bordercolor="#666666"
     borderopacity="1.0"
     inkscape:pageopacity="0.0"
     inkscape:pageshadow="2"
     inkscape:zoom="7.9195959"
     inkscape:cx="50.212889"
     inkscape:cy="53.394356"
     inkscape:document-units="mm"
     inkscape:current-layer="layer1"
     showgrid="false"
     inkscape:window-width="1850"
     inkscape:window-height="1016"
     inkscape:window-x="70"
     inkscape:window-y="27"
     inkscape:window-maximized="1" />
  <metadata
     id="metadata5444">
    <rdf:RDF>
      <cc:Work
         rdf:about="">
        <dc:format>image/svg+xml</dc:format>
        <dc:type
           rdf:resource="http://purl.org/dc/dcmitype/StillImage" />
        <dc:title></dc:title>
      </cc:Work>
    </rdf:RDF>
  </metadata>
  <g
     inkscape:label="Layer 1"
     inkscape:groupmode="layer"
     id="layer1"
     transform="translate(0.58850046,1.4337386)">
    <rect
       style="fill:#000000;fill-opacity:1;stroke:#00ccff;stroke-width:1.14831865;stroke-miterlimit:4;stroke-dasharray:none;stroke-opacity:1"
       id="rect5469"
       width="21.384338"
       height="27.24296"
       x="-0.014341135"
       y="-0.85957927" />
    <path
       d="M 18.667641,3.8543259 17.75033,4.3276655 16.448316,4.8602717 15.472003,5.1857092 14.436159,5.4815134 13.134145,5.7479488 12.00993,5.9551176 V 10.42314 h 6.657975 v 2.219326 H 3.0734085 V 4.2683988 h 1.627452 L 6.7722681,4.2091318 8.6068726,4.0612298 9.7313417,3.9133277 V 1.5461009 h 2.2783243 v 2.130425 l 1.00621,-0.1775354 1.213115,-0.2661708 1.183481,-0.3550708 0.976577,-0.3254375 1.242748,-0.502973 1.035844,-0.5029729 z M 5.2628336,6.5472551 V 10.394035 H 9.7014437 V 6.2514509 l -1.0652034,0.1182687 -1.2131029,0.088635 -1.006202,0.059267 z"
       id="path20"
       inkscape:connector-curvature="0"
       style="fill:#00ccff;stroke:none;stroke-width:0.37041667" />
    <path
       style="fill:#00ccff;stroke:none;stroke-width:0.37041667"
       inkscape:connector-curvature="0"
       id="path40"
       d="M 9.018825,20.67257 H 11.89616 V 19.545445 H 9.018825 v -1.486694 h 3.265214 V 16.931626 H 7.666816 v 6.57225 h 1.352009 z" />
  </g>
</svg>
