<?xml version="1.0" encoding="UTF-8" standalone="no"?>
<!-- Created with Inkscape (http://www.inkscape.org/) -->

<svg
   xmlns:dc="http://purl.org/dc/elements/1.1/"
   xmlns:cc="http://creativecommons.org/ns#"
   xmlns:rdf="http://www.w3.org/1999/02/22-rdf-syntax-ns#"
   xmlns:svg="http://www.w3.org/2000/svg"
   xmlns="http://www.w3.org/2000/svg"
   xmlns:sodipodi="http://sodipodi.sourceforge.net/DTD/sodipodi-0.dtd"
   xmlns:inkscape="http://www.inkscape.org/namespaces/inkscape"
   width="22.532658mm"
   height="28.391279mm"
   viewBox="0 0 22.532658 28.39128"
   version="1.1"
   id="svg5447"
   inkscape:version="0.92.4 (f8dce91, 2019-08-02)"
   sodipodi:docname="p.svg">
  <defs
     id="defs5441" />
  <sodipodi:namedview
     id="base"
     pagecolor="#ffffff"
     bordercolor="#666666"
     borderopacity="1.0"
     inkscape:pageopacity="0.0"
     inkscape:pageshadow="2"
     inkscape:zoom="7.9195959"
     inkscape:cx="50.212889"
     inkscape:cy="53.394356"
     inkscape:document-units="mm"
     inkscape:current-layer="layer1"
     showgrid="false"
     inkscape:window-width="1850"
     inkscape:window-height="1016"
     inkscape:window-x="70"
     inkscape:window-y="27"
     inkscape:window-maximized="1" />
  <metadata
     id="metadata5444">
    <rdf:RDF>
      <cc:Work
         rdf:about="">
        <dc:format>image/svg+xml</dc:format>
        <dc:type
           rdf:resource="http://purl.org/dc/dcmitype/StillImage" />
        <dc:title></dc:title>
      </cc:Work>
    </rdf:RDF>
  </metadata>
  <g
     inkscape:label="Layer 1"
     inkscape:groupmode="layer"
     id="layer1"
     transform="translate(0.58850046,1.4337386)">
    <rect
       style="fill:#000000;fill-opacity:1;stroke:#00ccff;stroke-width:1.14831865;stroke-miterlimit:4;stroke-dasharray:none;stroke-opacity:1"
       id="rect5469"
       width="21.384338"
       height="27.24296"
       x="-0.014341135"
       y="-0.85957927" />
    <path
       d="M 14.89478,1.4355206 V 12.532144 H 7.6745675 L 7.3787625,12.117807 7.1123278,11.6741 6.7572571,11.052594 6.4614531,10.342452 6.1656494,9.6026767 5.9881134,8.7446343 5.8105784,7.7683219 5.7513084,6.7621125 5.8105784,5.7561664 5.8994784,4.838856 6.0767494,3.9511789 6.2839174,3.2706706 6.5797221,2.6491643 6.8755258,2.1165581 7.2308608,1.6728518 7.4377645,1.4360498 h 2.6926635 l 0.325438,0.04445 0.192352,0.088635 0.118533,0.2071687 0.01455,0.2958042 v 1.583267 H 8.5916119 V 2.7676976 l -0.2365367,0.5326063 -0.207169,0.650875 -0.177535,0.8580438 -0.1479017,0.9469437 -0.05927,0.9469441 0.05927,0.9469424 0.1775347,1.0059454 0.236538,0.7694087 0.2368017,0.4733387 0.295804,0.4143383 H 12.675191 V 1.4357852 Z"
       id="path134"
       inkscape:connector-curvature="0"
       style="fill:#00ccff;stroke:none;stroke-width:0.37041667" />
    <path
       style="fill:#00ccff;stroke:none;stroke-width:0.37041667"
       inkscape:connector-curvature="0"
       id="path156"
       d="m 9.2946096,21.078186 h 1.6867184 c 1.208352,0 1.983052,-0.856721 1.983052,-2.191279 0,-1.316302 -0.748242,-2.036763 -2.118254,-2.036763 H 7.9425892 v 6.57225 h 1.3520204 z m 0,-1.127125 v -1.973792 h 1.2628564 c 0.721254,0 1.054893,0.315119 1.054893,0.990865 0,0.667015 -0.333639,0.982927 -1.054893,0.982927 z" />
  </g>
</svg>
