<?xml version="1.0" encoding="UTF-8" standalone="no"?>
<!-- Created with Inkscape (http://www.inkscape.org/) -->

<svg
   xmlns:dc="http://purl.org/dc/elements/1.1/"
   xmlns:cc="http://creativecommons.org/ns#"
   xmlns:rdf="http://www.w3.org/1999/02/22-rdf-syntax-ns#"
   xmlns:svg="http://www.w3.org/2000/svg"
   xmlns="http://www.w3.org/2000/svg"
   xmlns:sodipodi="http://sodipodi.sourceforge.net/DTD/sodipodi-0.dtd"
   xmlns:inkscape="http://www.inkscape.org/namespaces/inkscape"
   width="22.532658mm"
   height="28.391279mm"
   viewBox="0 0 22.532658 28.39128"
   version="1.1"
   id="svg5447"
   inkscape:version="0.92.4 (f8dce91, 2019-08-02)"
   sodipodi:docname="r.svg">
  <defs
     id="defs5441" />
  <sodipodi:namedview
     id="base"
     pagecolor="#ffffff"
     bordercolor="#666666"
     borderopacity="1.0"
     inkscape:pageopacity="0.0"
     inkscape:pageshadow="2"
     inkscape:zoom="7.9195959"
     inkscape:cx="50.212889"
     inkscape:cy="53.394356"
     inkscape:document-units="mm"
     inkscape:current-layer="layer1"
     showgrid="false"
     inkscape:window-width="1850"
     inkscape:window-height="1016"
     inkscape:window-x="70"
     inkscape:window-y="27"
     inkscape:window-maximized="1" />
  <metadata
     id="metadata5444">
    <rdf:RDF>
      <cc:Work
         rdf:about="">
        <dc:format>image/svg+xml</dc:format>
        <dc:type
           rdf:resource="http://purl.org/dc/dcmitype/StillImage" />
        <dc:title></dc:title>
      </cc:Work>
    </rdf:RDF>
  </metadata>
  <g
     inkscape:label="Layer 1"
     inkscape:groupmode="layer"
     id="layer1"
     transform="translate(0.58850046,1.4337386)">
    <rect
       style="fill:#000000;fill-opacity:1;stroke:#00ccff;stroke-width:1.14831865;stroke-miterlimit:4;stroke-dasharray:none;stroke-opacity:1"
       id="rect5469"
       width="21.384338"
       height="27.24296"
       x="-0.014341135"
       y="-0.85957927" />
    <path
       d="M 16.84243,1.3645053 8.4384709,12.490764 H 5.8347084 L 12.492416,3.6134636 H 4.798865 L 6.5742181,1.3645053 Z"
       id="path138"
       inkscape:connector-curvature="0"
       style="fill:#00ccff;stroke:none;stroke-width:0.37041667" />
    <path
       style="fill:#00ccff;stroke:none;stroke-width:0.37041667"
       inkscape:connector-curvature="0"
       id="path160"
       d="m 8.0151382,20.678418 h 1.5504571 c 0.5860517,0 0.8381997,0.23442 0.8381997,0.784754 0,0.05398 2.65e-4,0.144198 -0.009,0.261408 -0.0087,0.17145 -0.009,0.33364 -0.009,0.432858 0,0.61304 0.03625,0.811477 0.207698,1.127125 h 1.451777 v -0.243681 c -0.207433,-0.116946 -0.288925,-0.252412 -0.288925,-0.540808 -0.03598,-1.938602 -0.07197,-2.028825 -0.910166,-2.389452 0.739245,-0.288661 1.108868,-0.820473 1.108868,-1.623219 0,-0.522817 -0.180181,-1.000654 -0.495829,-1.325298 -0.297656,-0.306652 -0.712258,-0.449792 -1.271323,-0.449792 H 6.6631181 v 6.57225 h 1.3520201 z m 0,-1.127125 v -1.711855 h 1.6316841 c 0.3876147,0 0.5498037,0.03572 0.7122587,0.170127 0.162189,0.135203 0.243416,0.360628 0.243416,0.66728 0,0.315648 -0.08996,0.56806 -0.243416,0.703262 -0.144198,0.126206 -0.324644,0.170921 -0.7122587,0.170921 z" />
  </g>
</svg>
